﻿name,lat,long,mainland?,squirrels?,cones?,bills?,calls?,symbols,
Albion,42.19,113.36,n,n,y,y,y,white,circle and square and triangle
Bears Paw,48.1,109.4,n,n,y,y,y,white,circle and square and triangle
Big Snowy,46.49,109.29,n,y,y,y,y,grey,circle and square and triangle
Bighorn,44.16,106.56,n,y,n,y,y,grey,square and triangle
Black Hills,44.1,103.53,n,y,y,y,y,grey,circle and square and triangle
Crazy mountains,46.11,110.24,n,y,y,n,y,grey,circle and triangle
Grand Mesa,39.03,108,y,y,n,y,y,black,square and triangle
Highw. Camp,47.24,110.34,n,y,y,n,y,grey,circle and triangle
Highw. Geyser,47.24,110.34,n,y,y,n,y,grey,circle and triangle
Jemez,35.89,106.31,y,y,n,y,y,black,square and triangle
Judith,42.12,109.13,n,y,y,n,y,grey,circle and triangle
Little Rockies,47.56,108.31,n,n,y,y,y,white,circle and square and triangle
near Aspen,39.12,106.72,y,y,n,y,y,black,square and triangle
Pryor,45.1,108.27,n,y,y,y,y,grey,circle and square and triangle
San Juan,37.7,108.72,y,y,n,y,y,black,square and triangle
Sandia,35.2,106.43,y,y,n,y,y,black,square and triangle
South Hills,42.1,114.16,n,n,y,y,y,white,circle and square and triangle
Teton Pass,43.5,110.95,y,y,n,y,y,black,square and triangle
Wood Lake,47.25,112.47,y,y,y,y,y,black,circle and square and triangle